{
  "serviceUrl": "https://legacy-dev.careersinthemilitary.com",
  "ssoUrl": "http://localhost:8080/cep",
  "cepBaseUrl": "http://localhost:8080/cep",
  "imageUrl": "https://dev-media.careersinthemilitary.com",
  "awsApiUrl": {
    "dev": "https://88e82niqyf.execute-api.us-east-1.amazonaws.com",
    "stg": "https://stg-aws-api.asvabprogram.com:8443",
    "prod": "https://89sifzhed3.execute-api.us-east-1.amazonaws.com"
  },
  "disableLogin": "false"
}